design/wave.vcd
$date
	Fri Apr 18 22:55:54 2025
$end
$version
	Icarus Verilog
$end
$timescale
	1ps
$end
$scope module top_tb $end
$var wire 1 ! we_out $end
$var wire 32 " store_data_out [31:0] $end
$var wire 32 # pc [31:0] $end
$var wire 32 $ load_data_in [31:0] $end
$var wire 32 % inst_i [31:0] $end
$var wire 1 & ce $end
$var wire 32 ' addr_out [31:0] $end
$var reg 1 ( clk $end
$var reg 1 ) rst $end
$scope module u_RAM $end
$var wire 1 ( clk $end
$var wire 1 ) rst $end
$var wire 32 * wr_data [31:0] $end
$var wire 1 ! w_r $end
$var wire 32 + addr [31:0] $end
$var reg 32 , rd_data [31:0] $end
$upscope $end
$scope module u_inst_rom $end
$var wire 1 & ce $end
$var wire 32 - addr [31:0] $end
$var reg 32 . inst [31:0] $end
$upscope $end
$scope module u_top $end
$var wire 1 ( clk $end
$var wire 32 / inst_i [31:0] $end
$var wire 32 0 load_data_in [31:0] $end
$var wire 1 ) rst $end
$var wire 1 ! we_out $end
$var wire 5 1 wd_o [4:0] $end
$var wire 32 2 store_data_out [31:0] $end
$var wire 1 3 reg2_read_o $end
$var wire 32 4 reg2_o [31:0] $end
$var wire 5 5 reg2_addr_o [4:0] $end
$var wire 1 6 reg1_read_o $end
$var wire 32 7 reg1_o [31:0] $end
$var wire 5 8 reg1_addr_o [4:0] $end
$var wire 32 9 rdata2 [31:0] $end
$var wire 32 : rdata1 [31:0] $end
$var wire 32 ; pc_plus_4 [31:0] $end
$var wire 32 < pc [31:0] $end
$var wire 32 = load_data_out [31:0] $end
$var wire 32 > imm_o [31:0] $end
$var wire 1 ? imm_en $end
$var wire 1 & ce $end
$var wire 7 @ alusel_o [6:0] $end
$var wire 3 A aluop_o [2:0] $end
$var wire 32 B alu_result [31:0] $end
$var wire 32 C addr_out [31:0] $end
$var wire 1 D WB_en $end
$var wire 32 E WB_Data [31:0] $end
$var wire 2 F WB_Ctrl [1:0] $end
$var wire 1 G PC_en $end
$var wire 1 H MEM_en $end
$var wire 1 I L_or_S $end
$var wire 1 J Jump_en $end
$var wire 1 K ID_en $end
$var wire 1 L EX_en $end
$var wire 1 M EXPC_en $end
$scope module u_Control_Uint $end
$var wire 1 ( clk $end
$var wire 1 ) rst $end
$var wire 7 N ALUSEL [6:0] $end
$var parameter 3 O EX $end
$var parameter 3 P ID $end
$var parameter 3 Q MEM $end
$var parameter 3 R PC $end
$var parameter 3 S WB $end
$var reg 1 M EXPC_en $end
$var reg 1 L EX_en $end
$var reg 1 K ID_en $end
$var reg 1 J Jump_en $end
$var reg 1 I L_or_S $end
$var reg 1 H MEM_en $end
$var reg 1 G PC_en $end
$var reg 2 T WB_Ctrl [1:0] $end
$var reg 1 D WB_en $end
$var reg 1 ? imm_en $end
$var reg 3 U st_cur [2:0] $end
$var reg 3 V st_next [2:0] $end
$upscope $end
$scope module u_WB $end
$var wire 2 W WB_Ctrl [1:0] $end
$var wire 32 X WB_Data [31:0] $end
$var wire 32 Y RAM_Data [31:0] $end
$var wire 32 Z PC_Plus4 [31:0] $end
$var wire 32 [ EX_Data [31:0] $end
$upscope $end
$scope module u_ex $end
$var wire 1 L en $end
$var wire 1 ? imm_en $end
$var wire 1 M pc_en $end
$var wire 1 ) rst $end
$var wire 32 \ reg_2 [31:0] $end
$var wire 32 ] reg_1 [31:0] $end
$var wire 32 ^ pc [31:0] $end
$var wire 32 _ input_2 [31:0] $end
$var wire 32 ` input_1 [31:0] $end
$var wire 32 a imm [31:0] $end
$var wire 3 b aluop [2:0] $end
$var reg 32 c alu_result [31:0] $end
$upscope $end
$scope module u_id $end
$var wire 1 K id_en $end
$var wire 32 d inst_i [31:0] $end
$var wire 1 ) rst $end
$var wire 32 e reg2_data_i [31:0] $end
$var wire 32 f reg1_data_i [31:0] $end
$var wire 7 g op3 [6:0] $end
$var wire 3 h op2 [2:0] $end
$var wire 7 i op1 [6:0] $end
$var reg 3 j aluop [2:0] $end
$var reg 3 k aluop_o [2:0] $end
$var reg 7 l alusel [6:0] $end
$var reg 7 m alusel_o [6:0] $end
$var reg 32 n imm [31:0] $end
$var reg 32 o imm_o [31:0] $end
$var reg 32 p reg1 [31:0] $end
$var reg 5 q reg1_addr_o [4:0] $end
$var reg 32 r reg1_o [31:0] $end
$var reg 1 6 reg1_read_o $end
$var reg 32 s reg2 [31:0] $end
$var reg 5 t reg2_addr_o [4:0] $end
$var reg 32 u reg2_o [31:0] $end
$var reg 1 3 reg2_read_o $end
$var reg 5 v wd [4:0] $end
$var reg 5 w wd_o [4:0] $end
$upscope $end
$scope module u_mem $end
$var wire 1 x clk $end
$var wire 1 I l_or_s $end
$var wire 32 y load_data_in [31:0] $end
$var wire 32 z mem_addr_i [31:0] $end
$var wire 1 H mem_en $end
$var wire 32 { reg2_i [31:0] $end
$var wire 1 ) rst $end
$var reg 32 | addr_out [31:0] $end
$var reg 32 } load_data_out [31:0] $end
$var reg 32 ~ store_data_out [31:0] $end
$var reg 1 ! we_out $end
$upscope $end
$scope module u_pc $end
$var wire 32 !" branch [31:0] $end
$var wire 1 J branch_en $end
$var wire 1 & ce $end
$var wire 1 G pc_en $end
$var wire 1 ) rst $end
$var wire 32 "" pc_plus_4 [31:0] $end
$var reg 32 #" pc [31:0] $end
$upscope $end
$scope module u_regfile $end
$var wire 1 ( clk $end
$var wire 5 $" raddr1 [4:0] $end
$var wire 5 %" raddr2 [4:0] $end
$var wire 1 6 re1 $end
$var wire 1 3 re2 $end
$var wire 1 ) rst $end
$var wire 5 &" waddr [4:0] $end
$var wire 32 '" wdata [31:0] $end
$var wire 1 D we $end
$var reg 32 (" rdata1 [31:0] $end
$var reg 32 )" rdata2 [31:0] $end
$upscope $end
$upscope $end
$upscope $end
$enddefinitions $end
$comment Show the parameter values. $end
$dumpall
b100 S
b0 R
b11 Q
b1 P
b10 O
$end
#0
$dumpvars
b0 )"
b0 ("
b0 '"
bx &"
b0 %"
b0 $"
b0 #"
b100 ""
b0 !"
b0 ~
b0 }
b0 |
bx {
b0 z
b0 y
zx
bx w
b0 v
bx u
b0 t
b0 s
bx r
b0 q
b0 p
bx o
b0 n
bx m
b0 l
bx k
b0 j
b0 i
b0 h
b0 g
b0 f
b0 e
b0 d
b0 c
bx b
bx a
bx `
bx _
b0 ^
bx ]
bx \
b0 [
b100 Z
b0 Y
b0 X
b0 W
b1 V
b0 U
b0 T
bx N
xM
0L
0K
xJ
0I
0H
1G
b0 F
b0 E
0D
b0 C
b0 B
bx A
bx @
0?
bx >
b0 =
b0 <
b100 ;
b0 :
b0 9
b0 8
bx 7
06
b0 5
bx 4
03
b0 2
bx 1
b0 0
b0 /
b0 .
b0 -
b0 ,
b0 +
b0 *
0)
0(
b0 '
0&
b0 %
b0 $
b0 #
b0 "
0!
$end
#7000
0J
0G
1(
#14000
0(
#21000
1(
#28000
0(
#35000
1(
#42000
0(
#49000
1(
#56000
0(
#63000
1(
#70000
0(
#77000
1(
#84000
0(
#91000
1(
#98000
0(
#101000
b11111111111111111111111111111111 _
b0 `
b11111111111111111111111111111111 >
b11111111111111111111111111111111 a
b11111111111111111111111111111111 o
b11111111111111111111111111111111 4
b11111111111111111111111111111111 \
b11111111111111111111111111111111 u
b11111111111111111111111111111111 {
b0 7
b0 ]
b0 r
b1 1
b1 w
b1 &"
b100101 @
b100101 N
b100101 m
b11 A
b11 b
b11 k
b11111111111111111111111111111111 s
b10 V
1K
b11 j
b1 v
b11111111111111111111111111111111 n
16
b100101 l
b11111 5
b11111 t
b11111 %"
b10011 i
b1111111 g
b1 U
b11111111111100000000000010010011 %
b11111111111100000000000010010011 .
b11111111111100000000000010010011 /
b11111111111100000000000010010011 d
1&
1)
#105000
b11111111111111111111111111111111 B
b11111111111111111111111111111111 [
b11111111111111111111111111111111 c
b11111111111111111111111111111111 z
b11111111111111111111111111111111 !"
b100 V
1L
0K
0M
1?
b10 U
1(
#112000
bx $
bx ,
bx 0
bx y
0(
#119000
b11111111111111111111111111111111 E
b11111111111111111111111111111111 X
b11111111111111111111111111111111 '"
b0 V
1D
0L
b10 F
b10 T
b10 W
b100 U
1(
#126000
0(
#133000
b11111111111111111111111111111111 9
b11111111111111111111111111111111 e
b11111111111111111111111111111111 )"
b11111111111111111111111111111111 s
13
b0 n
b1 5
b1 t
b1 %"
16
b0 v
b111001 l
b11 j
b100011 i
b10 h
b0 g
b100000010000000100011 %
b100000010000000100011 .
b100000010000000100011 /
b100000010000000100011 d
b1000 ;
b1000 Z
b1000 ""
b100 #
b100 -
b100 <
b100 ^
b100 #"
b1 V
0D
1G
b0 U
1(
#140000
0(
#147000
b0 _
b0 >
b0 a
b0 o
b0 1
b0 w
b0 &"
b111001 @
b111001 N
b111001 m
b10 V
1K
0G
b1 U
1(
#154000
0(
#161000
b0 E
b0 X
b0 '"
b0 B
b0 [
b0 c
b0 z
b0 !"
b11 V
1L
0K
b10 U
1(
#168000
0(
#175000
bx =
bx Y
bx }
1!
b11111111111111111111111111111111 "
b11111111111111111111111111111111 *
b11111111111111111111111111111111 2
b11111111111111111111111111111111 ~
b0 V
1H
0L
1I
b11 U
1(
#182000
0(
#189000
b0 9
b0 e
b0 )"
b0 s
b10 v
b0 5
b0 t
b0 %"
03
16
b101001 l
b11 j
b11 i
b10000100000011 %
b10000100000011 .
b10000100000011 /
b10000100000011 d
b1100 ;
b1100 Z
b1100 ""
b1000 #
b1000 -
b1000 <
b1000 ^
b1000 #"
b1 V
0H
1G
b0 U
1(
#196000
0(
#203000
b0 4
b0 \
b0 u
b0 {
b10 1
b10 w
b10 &"
b101001 @
b101001 N
b101001 m
b10 V
1K
0G
b1 U
1(
#210000
0(
#217000
b11 V
1L
0K
b10 U
1(
#224000
0(
#231000
0!
b0 "
b0 *
b0 2
b0 ~
b100 V
1H
0L
0I
b11 U
1(
#238000
b11111111111111111111111111111111 =
b11111111111111111111111111111111 Y
b11111111111111111111111111111111 }
b11111111111111111111111111111111 $
b11111111111111111111111111111111 ,
b11111111111111111111111111111111 0
b11111111111111111111111111111111 y
0(
#245000
b11111111111111111111111111111111 E
b11111111111111111111111111111111 X
b11111111111111111111111111111111 '"
b0 V
1D
0H
b0 F
b0 T
b0 W
b100 U
1(
#252000
0(
#259000
b11111111111111111111111111111111 s
b11111111111111111111111111111111 p
b11111111111111111111111111111111 9
b11111111111111111111111111111111 e
b11111111111111111111111111111111 )"
b11111111111111111111111111111111 :
b11111111111111111111111111111111 f
b11111111111111111111111111111111 ("
b1000 n
13
b10 5
b10 t
b10 %"
b1 8
b1 q
b1 $"
16
b0 v
b1100010 l
b11 j
b1100011 i
b0 h
b1000001000010001100011 %
b1000001000010001100011 .
b1000001000010001100011 /
b1000001000010001100011 d
b10000 ;
b10000 Z
b10000 ""
b1100 #
b1100 -
b1100 <
b1100 ^
b1100 #"
b1 V
0D
1G
b0 U
1(
#266000
0(
#273000
b1000 _
b11111111111111111111111111111111 `
b1000 >
b1000 a
b1000 o
b11111111111111111111111111111111 4
b11111111111111111111111111111111 \
b11111111111111111111111111111111 u
b11111111111111111111111111111111 {
b11111111111111111111111111111111 7
b11111111111111111111111111111111 ]
b11111111111111111111111111111111 r
b0 1
b0 w
b0 &"
b1100010 @
b1100010 N
b1100010 m
b10 V
1K
0G
b1 U
1(
#280000
0(
#287000
b10100 B
b10100 [
b10100 c
b10100 z
b10100 !"
b1100 `
b0 V
1L
0K
1M
b10 U
1(
#294000
0(
#301000
b0 9
b0 e
b0 )"
b1 s
b1 v
b1 n
b1 5
b1 t
b1 %"
03
16
b100101 l
b11 j
b10011 i
b100001000000010010011 %
b100001000000010010011 .
b100001000000010010011 /
b100001000000010010011 d
b10100 `
b11000 ;
b11000 Z
b11000 ""
b10100 #
b10100 -
b10100 <
b10100 ^
b10100 #"
b1 V
0L
1G
1J
b0 U
1(
#308000
0(
#315000
b1 _
b1 >
b1 a
b1 o
b1 4
b1 \
b1 u
b1 {
b1 1
b1 w
b1 &"
b100101 @
b100101 N
b100101 m
b10 V
1K
0G
b1 U
1(
#322000
0(
#329000
b0 B
b0 [
b0 c
b0 z
b0 !"
b11111111111111111111111111111111 `
b100 V
1L
0K
0M
b10 U
1(
#336000
0(
#343000
b0 E
b0 X
b0 '"
b0 V
1D
0L
b10 F
b10 T
b10 W
b100 U
1(
#350000
0(
#357000
b0 s
13
b1000 n
b10 8
b10 q
b10 $"
16
b0 v
b1100010 l
b11 j
b1100011 i
b100 h
b100010100010001100011 %
b100010100010001100011 .
b100010100010001100011 /
b100010100010001100011 d
b11100 ;
b11100 Z
b11100 ""
b11000 #
b11000 -
b11000 <
b11000 ^
b11000 #"
b1 V
0D
1G
0J
b0 U
1(
#364000
0(
#371000
b1000 _
b1000 >
b1000 a
b1000 o
b0 4
b0 \
b0 u
b0 {
b0 1
b0 w
b0 &"
b1100010 @
b1100010 N
b1100010 m
b10 V
1K
0G
b1 U
1(
#378000
0(
#385000
b100000 E
b100000 X
b100000 '"
b100000 B
b100000 [
b100000 c
b100000 z
b100000 !"
b11000 `
b0 V
1L
0K
1M
b10 U
1(
#392000
0(
#399000
b11111111111111111111111111111111 s
b0 p
b11111111111111111111111111111111 9
b11111111111111111111111111111111 e
b11111111111111111111111111111111 )"
b0 :
b0 f
b0 ("
b1000 n
b10 5
b10 t
b10 %"
b1 8
b1 q
b1 $"
13
16
b1100010 l
b11 j
b110 h
b1000001110010001100011 %
b1000001110010001100011 .
b1000001110010001100011 /
b1000001110010001100011 d
b100000 `
b100100 ;
b100100 Z
b100100 ""
b100000 #
b100000 -
b100000 <
b100000 ^
b100000 #"
b1 V
0L
1G
1J
b0 U
1(
#406000
0(
#413000
b11111111111111111111111111111111 4
b11111111111111111111111111111111 \
b11111111111111111111111111111111 u
b11111111111111111111111111111111 {
b0 7
b0 ]
b0 r
b10 V
1K
0G
b1 U
1(
#420000
0(
#427000
b101000 E
b101000 X
b101000 '"
b101000 B
b101000 [
b101000 c
b101000 z
b101000 !"
b0 V
1L
0K
b10 U
1(
#434000
0(
#441000
b1000 n
13
16
b1100010 l
b11 j
b101 h
b1000001101010001100011 %
b1000001101010001100011 .
b1000001101010001100011 /
b1000001101010001100011 d
b101000 `
b101100 ;
b101100 Z
b101100 ""
b101000 #
b101000 -
b101000 <
b101000 ^
b101000 #"
b1 V
0L
1G
b0 U
1(
#448000
0(
#455000
b10 V
1K
0G
b1 U
1(
#462000
0(
#469000
b110000 E
b110000 X
b110000 '"
b110000 B
b110000 [
b110000 c
b110000 z
b110000 !"
b0 V
1L
0K
b10 U
1(
#476000
0(
#483000
b0 s
b11111111111111111111111111111111 p
b0 9
b0 e
b0 )"
b11111111111111111111111111111111 :
b11111111111111111111111111111111 f
b11111111111111111111111111111111 ("
b1000 n
b1 5
b1 t
b1 %"
b10 8
b10 q
b10 $"
13
16
b1100010 l
b11 j
b111 h
b100010111010001100011 %
b100010111010001100011 .
b100010111010001100011 /
b100010111010001100011 d
b110000 `
b110100 ;
b110100 Z
b110100 ""
b110000 #
b110000 -
b110000 <
b110000 ^
b110000 #"
b1 V
0L
1G
b0 U
1(
#490000
0(
#497000
b0 4
b0 \
b0 u
b0 {
b11111111111111111111111111111111 7
b11111111111111111111111111111111 ]
b11111111111111111111111111111111 r
b10 V
1K
0G
b1 U
1(
#504000
0(
#511000
b111000 E
b111000 X
b111000 '"
b111000 B
b111000 [
b111000 c
b111000 z
b111000 !"
b0 V
1L
0K
b10 U
1(
#518000
0(
#525000
b0 :
b0 f
b0 ("
b1000 s
b1000 p
b1 v
b1000 n
b1000 5
b1000 t
b1000 %"
b0 8
b0 q
b0 $"
03
06
b1100011 l
b11 j
b1101111 i
b0 h
b100000000000000011101111 %
b100000000000000011101111 .
b100000000000000011101111 /
b100000000000000011101111 d
b111000 `
b111100 ;
b111100 Z
b111100 ""
b111000 #
b111000 -
b111000 <
b111000 ^
b111000 #"
b1 V
0L
1G
b0 U
1(
#532000
0(
#539000
b1000 4
b1000 \
b1000 u
b1000 {
b1000 7
b1000 ]
b1000 r
b1 1
b1 w
b1 &"
b1100011 @
b1100011 N
b1100011 m
b10 V
1K
0G
b1 U
1(
#546000
0(
#553000
b1000000 E
b1000000 X
b1000000 '"
b1000000 B
b1000000 [
b1000000 c
b1000000 z
b1000000 !"
b100 V
1L
0K
b10 U
1(
#560000
0(
#567000
b111100 E
b111100 X
b111100 '"
b0 V
1D
0L
b1 F
b1 T
b1 W
b100 U
1(
#574000
0(
#581000
b111100 :
b111100 f
b111100 ("
b0 s
b111100 p
16
b0 n
b0 5
b0 t
b0 %"
b1 8
b1 q
b1 $"
b1 v
b1100111 l
b11 j
b1100111 i
b1000000011100111 %
b1000000011100111 .
b1000000011100111 /
b1000000011100111 d
b1000100 E
b1000100 X
b1000100 '"
b1000000 `
b1000100 ;
b1000100 Z
b1000100 ""
b1000000 #
b1000000 -
b1000000 <
b1000000 ^
b1000000 #"
b1 V
0D
1G
b0 U
1(
#588000
0(
#595000
b0 _
b0 >
b0 a
b0 o
b0 4
b0 \
b0 u
b0 {
b111100 7
b111100 ]
b111100 r
b1100111 @
b1100111 N
b1100111 m
b10 V
1K
0G
b1 U
1(
#602000
0(
#609000
b111100 B
b111100 [
b111100 c
b111100 z
b111100 !"
b111100 `
b100 V
1L
0K
0M
b10 U
1(
#616000
0(
#623000
b0 V
1D
0L
b11 F
b11 T
b11 W
b100 U
1(
#630000
0(
#637000
b1000100 p
b1000100 :
b1000100 f
b1000100 ("
b1 s
b1 n
b1 5
b1 t
b1 %"
16
b10 v
b100101 l
b11 j
b10011 i
b100001000000100010011 %
b100001000000100010011 .
b100001000000100010011 /
b100001000000100010011 d
b1000000 E
b1000000 X
b1000000 '"
b1000000 ;
b1000000 Z
b1000000 ""
b111100 #
b111100 -
b111100 <
b111100 ^
b111100 #"
b1 V
0D
1G
b0 U
1(
#644000
0(
#651000
b1 _
b1000100 `
b1 >
b1 a
b1 o
b1 4
b1 \
b1 u
b1 {
b1000100 7
b1000100 ]
b1000100 r
b10 1
b10 w
b10 &"
b100101 @
b100101 N
b100101 m
b10 V
1K
0G
b1 U
1(
#658000
0(
#665000
b1000101 B
b1000101 [
b1000101 c
b1000101 z
b1000101 !"
b100 V
1L
0K
b10 U
1(
#672000
0(
#679000
b1000101 E
b1000101 X
b1000101 '"
b0 V
1D
0L
b10 F
b10 T
b10 W
b100 U
1(
#686000
0(
#693000
b0 s
b0 n
b0 5
b0 t
b0 %"
16
b1 v
b1100111 l
b11 j
b1100111 i
b1000000011100111 %
b1000000011100111 .
b1000000011100111 /
b1000000011100111 d
b1000100 ;
b1000100 Z
b1000100 ""
b1000000 #
b1000000 -
b1000000 <
b1000000 ^
b1000000 #"
b1 V
0D
1G
0J
b0 U
1(
#700000
0(
#707000
b0 _
b0 >
b0 a
b0 o
b0 4
b0 \
b0 u
b0 {
b1 1
b1 w
b1 &"
b1100111 @
b1100111 N
b1100111 m
b10 V
1K
0G
b1 U
1(
#714000
0(
#721000
b1000100 E
b1000100 X
b1000100 '"
b1000100 B
b1000100 [
b1000100 c
b1000100 z
b1000100 !"
b100 V
1L
0K
b10 U
1(
#728000
0(
#735000
b0 V
1D
0L
b11 F
b11 T
b11 W
b100 U
1(
#742000
0(
#749000
b0 :
b0 f
b0 ("
b0 p
bx 5
bx t
bx %"
bx 8
bx q
bx $"
06
b0 v
b0 l
b0 j
bx i
bx h
bx g
bx %
bx .
bx /
bx d
b1001000 E
b1001000 X
b1001000 '"
b1001000 ;
b1001000 Z
b1001000 ""
b1000100 #
b1000100 -
b1000100 <
b1000100 ^
b1000100 #"
b1 V
0D
1G
1J
b0 U
1(
#756000
0(
#763000
b0 `
b0 7
b0 ]
b0 r
b0 1
b0 w
b0 &"
b0 @
b0 N
b0 m
b0 A
b0 b
b0 k
b10 V
1K
0G
b1 U
1(
#770000
0(
#777000
b0 B
b0 [
b0 c
b0 z
b0 !"
b0 V
1L
0K
0?
b10 U
1(
#784000
0(
#791000
b1001100 E
b1001100 X
b1001100 '"
b1001100 ;
b1001100 Z
b1001100 ""
b1001000 #
b1001000 -
b1001000 <
b1001000 ^
b1001000 #"
b1 V
0L
1G
0J
b0 U
1(
#798000
0(
#805000
b10 V
1K
0G
b1 U
1(
#812000
0(
#819000
b0 V
1L
0K
b10 U
1(
#826000
0(
#833000
b1010000 E
b1010000 X
b1010000 '"
b1010000 ;
b1010000 Z
b1010000 ""
b1001100 #
b1001100 -
b1001100 <
b1001100 ^
b1001100 #"
b1 V
0L
1G
b0 U
1(
#840000
0(
#847000
b10 V
1K
0G
b1 U
1(
#854000
0(
#861000
b0 V
1L
0K
b10 U
1(
#868000
0(
#875000
b1010100 E
b1010100 X
b1010100 '"
b1010100 ;
b1010100 Z
b1010100 ""
b1010000 #
b1010000 -
b1010000 <
b1010000 ^
b1010000 #"
b1 V
0L
1G
b0 U
1(
#882000
0(
#889000
b10 V
1K
0G
b1 U
1(
#896000
0(
#903000
b0 V
1L
0K
b10 U
1(
#910000
0(
#917000
b1011000 E
b1011000 X
b1011000 '"
b1011000 ;
b1011000 Z
b1011000 ""
b1010100 #
b1010100 -
b1010100 <
b1010100 ^
b1010100 #"
b1 V
0L
1G
b0 U
1(
#924000
0(
#931000
b10 V
1K
0G
b1 U
1(
#938000
0(
#945000
b0 V
1L
0K
b10 U
1(
#952000
0(
#959000
b1011100 E
b1011100 X
b1011100 '"
b1011100 ;
b1011100 Z
b1011100 ""
b1011000 #
b1011000 -
b1011000 <
b1011000 ^
b1011000 #"
b1 V
0L
1G
b0 U
1(
#966000
0(
#973000
b10 V
1K
0G
b1 U
1(
#980000
0(
#987000
b0 V
1L
0K
b10 U
1(
#994000
0(
#1001000
b1100000 E
b1100000 X
b1100000 '"
b1100000 ;
b1100000 Z
b1100000 ""
b1011100 #
b1011100 -
b1011100 <
b1011100 ^
b1011100 #"
b1 V
0L
1G
b0 U
1(
#1008000
0(
#1015000
b10 V
1K
0G
b1 U
1(
#1022000
0(
#1029000
b0 V
1L
0K
b10 U
1(
#1036000
0(
#1043000
b1100100 E
b1100100 X
b1100100 '"
b1100100 ;
b1100100 Z
b1100100 ""
b1100000 #
b1100000 -
b1100000 <
b1100000 ^
b1100000 #"
b1 V
0L
1G
b0 U
1(
#1050000
0(
#1057000
b10 V
1K
0G
b1 U
1(
#1064000
0(
#1071000
b0 V
1L
0K
b10 U
1(
#1078000
0(
#1085000
b1101000 E
b1101000 X
b1101000 '"
b1101000 ;
b1101000 Z
b1101000 ""
b1100100 #
b1100100 -
b1100100 <
b1100100 ^
b1100100 #"
b1 V
0L
1G
b0 U
1(
#1092000
0(
#1099000
b10 V
1K
0G
b1 U
1(
